cparsania/parcutils: An R package containing bioinformatics utility functions. Mostly related to RNAseq data analysis
…
                      RNA-seq analysis

                      Differential expression analysis

                      Prepare a count table

count_file <- system.file("extdata","toy_counts.txt" , package = "parcutils")

count_data <- readr::read_delim(count_file, delim = "\t")

count_data 
#> # A tibble: 5,000 × 10
#>    gene_id       contr…¹ contr…² contr…³ treat…⁴ treat…⁵ treat…⁶ treat…⁷ treat…⁸
#>    <chr>           <dbl>   <dbl>   <dbl>   <dbl>   <dbl>   <dbl>   <dbl>   <dbl>
#>  1 ENSG00000173…       0       0       0       0       0       0       0       0
#>  2 ENSG00000106…       1       0       2       0       0       1       1       1
#>  3 ENSG00000131…       2       0       2       0       0       1       1       1
#>  4 ENSG00000154…     652     690     639     607     453     461     809     994
#>  5 ENSG00000196…    3372    3631    3188    4644    3168    3514    4789    5466
#>  6 ENSG00000173…     694     784     829     974     580     716     413     545
#>  7 ENSG00000140…      87      73      81     100      77      72      63      87
#>  8 ENSG00000187…       4       4       2       0       5       2       1       4
#>  9 ENSG00000139…    1374    1789    1564    1933    1459    1584     482     729
#> 10 ENSG00000165…    3639    4533    3921    3879    3500    3439    3324    4683
#> # … with 4,990 more rows, 1 more variable: treat2_rep3 <dbl>, and abbreviated
#> #   variable names ¹​control_rep1, ²​control_rep2, ³​control_rep3, ⁴​treat1_rep1,
#> #   ⁵​treat1_rep2, ⁶​treat1_rep3, ⁷​treat2_rep1, ⁸​treat2_rep2
…
                     .

                      Get data from
                      
                       res
                      
                      using helper functions

# get normalised gene expression value for all genes across all samples. 
parcutils::get_normalised_expression_matrix(x = res, 
                                            samples = NULL,
                                            genes = NULL,
                                            summarise_replicates = FALSE)
#> # A tibble: 4,034 × 10
#>    gene_id       treat…¹ treat…² treat…³ contr…⁴ contr…⁵ contr…⁶ treat…⁷ treat…⁸
#>    <chr>           <dbl>   <dbl>   <dbl>   <dbl>   <dbl>   <dbl>   <dbl>   <dbl>
#>  1 ENSG00000154…  4.40e2  4.61e2 4.56e+2   694.   6.87e2  6.76e2  8.76e2  1.07e3
#>  2 ENSG00000196…  3.37e3  3.22e3 3.48e+3  3591.   3.62e3  3.37e3  5.19e3  5.87e3
#>  3 ENSG00000173…  7.07e2  5.90e2 7.09e+2   739.   7.81e2  8.77e2  4.47e2  5.85e2
#>  4 ENSG00000140…  7.26e1  7.83e1 7.13e+1    92.7  7.27e1  8.57e1  6.82e1  9.34e1
#>  5 ENSG00000139…  1.40e3  1.48e3 1.57e+3  1463.   1.78e3  1.66e3  5.22e2  7.82e2
#>  6 ENSG00000165…  2.81e3  3.56e3 3.40e+3  3875.   4.51e3  4.15e3  3.60e3  5.03e3
#>  7 ENSG00000179…  1.27e4  1.25e4 1.37e+4 13257.   1.34e4  1.40e4  1.08e4  1.51e4
#>  8 ENSG00000188…  4.61e2  4.34e2 4.59e+2   540.   5.92e2  5.66e2  4.68e2  5.80e2
#>  9 ENSG00000249…  0       2.03e0 9.90e-1     0    1.10e1  2.12e0  2.17e0  1.07e0
#> 10 ENSG00000110…  2.18e0  9.15e0 9.90e+0    11.7  5.97e0  1.59e1  5.42e0  4.29e0
#> # … with 4,024 more rows, 1 more variable: treat2_rep3 <dbl>, and abbreviated
#> #   variable names ¹​treat1_rep1, ²​treat1_rep2, ³​treat1_rep3, ⁴​control_rep1,
#> #   ⁵​control_rep2, ⁶​control_rep3, ⁷​treat2_rep1, ⁸​treat2_rep2

# average gene expression values across relicates  
parcutils::get_normalised_expression_matrix(x = res, 
                                            samples = NULL,
                                            genes = NULL,
                                            summarise_replicates = T, 
                                            summarise_method = "median")
#> # A tibble: 4,034 × 4
#>    gene_id                  control treatment1 treatment2
#>    <chr>                      <dbl>      <dbl>      <dbl>
#>  1 ENSG00000000971:CFH       7349.      5727.      9849. 
#>  2 ENSG00000001461:NIPAL3     134.       126.        68.2
#>  3 ENSG00000001497:LAS1L     9282.      8228.      7678. 
#>  4 ENSG00000001631:KRIT1    23294.     29183.     20375. 
#>  5 ENSG00000002746:HECW1       66.0       31.9       24.9
#>  6 ENSG00000003056:M6PR      6538.      7394.      6694. 
#>  7 ENSG00000003436:TFPI       248.       225.       200. 
#>  8 ENSG00000003509:NDUFAF7    462.       495.       384. 
#>  9 ENSG00000004766:VPS50       40.2       38.6      121. 
#> 10 ENSG00000004864:SLC25A13   370.       396.       844. 
#> # … with 4,024 more rows
…
