stemangiola/tidybulk: Brings bulk and pseudobulk transcriptomics to the tidyverse
…
cmds = cmds %$% 
    cmdscale.out %>%
    setNames(sprintf("Dim%s", 1:6))

cmds$cell_type = tibble_counts[
    match(tibble_counts$sample, rownames(cmds)),
    "Cell.type"
]

                     On the x and y axes axis we have the reduced dimensions 1 to 3, data is
coloured by cell type.

counts_SE.norm.MDS %>% pivot_sample()  %>% select(contains("Dim"), everything())

## # A tibble: 48 × 14
##      Dim1   Dim2   Dim3     Dim4    Dim5    Dim6 .sample   Cell.…¹ time  condi…²
##     <dbl>  <dbl>  <dbl>    <dbl>   <dbl>   <dbl> <chr>     <fct>   <fct> <lgl>  
##  1 -1.46   0.220 -1.68   0.0553   0.0658 -0.126  SRR17400… b_cell  0 d   TRUE   
##  2 -1.46   0.226 -1.71   0.0300   0.0454 -0.137  SRR17400… b_cell  1 d   TRUE   
##  3 -1.44   0.193 -1.60   0.0890   0.0503 -0.121  SRR17400… b_cell  3 d   TRUE   
##  4 -1.44   0.198 -1.67   0.0891   0.0543 -0.110  SRR17400… b_cell  7 d   TRUE   
##  5  0.243 -1.42   0.182  0.00642 -0.503  -0.131  SRR17400… dendri… 0 d   FALSE  
##  6  0.191 -1.42   0.195  0.0180  -0.457  -0.130  SRR17400… dendri… 1 d   FALSE  
##  7  0.257 -1.42   0.152  0.0130  -0.582  -0.0927 SRR17400… dendri… 3 d   FALSE  
##  8  0.162 -1.43   0.189  0.0232  -0.452  -0.109  SRR17400… dendri… 7 d   FALSE  
##  9  0.516 -1.47   0.240 -0.251    0.457  -0.119  SRR17400… monocy… 0 d   FALSE  
## 10  0.514 -1.41   0.231 -0.219    0.458  -0.131  SRR17400… monocy… 1 d   FALSE  
## # … with 38 more rows, 4 more variables: batch <fct>, factor_of_interest <lgl>,
## #   TMM <dbl>, multiplier <dbl>, and abbreviated variable names ¹​Cell.type,
## #   ²​condition
## # ℹ Use `print(n = ...)` to see more rows, and `colnames()` to see all variable names
…
count_m_log = log(count_m + 1)
pc = count_m_log %>% prcomp(scale = TRUE)
variance = pc$sdev^2
variance = (variance / sum(variance))[1:6]
pc$cell_type = counts[
    match(counts$sample, rownames(pc)),
    "Cell.type"
]

                     On the x and y axes axis we have the reduced dimensions 1 to 3, data is
coloured by cell type.

counts_SE.norm.PCA %>% pivot_sample() %>% select(contains("PC"), everything())

## # A tibble: 48 × 14
##        PC1   PC2    PC3     PC4    PC5   PC6 .sample Cell.…¹ time  condi…² batch
##      <dbl> <dbl>  <dbl>   <dbl>  <dbl> <dbl> <chr>   <fct>   <fct> <lgl>   <fct>
##  1 -12.6   -2.52 -14.9  -0.424  -0.592 -1.22 SRR174… b_cell  0 d   TRUE    0    
##  2 -12.6   -2.57 -15.2  -0.140  -0.388 -1.30 SRR174… b_cell  1 d   TRUE    1    
##  3 -12.6   -2.41 -14.5  -0.714  -0.344 -1.10 SRR174… b_cell  3 d   TRUE    1    
##  4 -12.5   -2.34 -14.9  -0.816  -0.427 -1.00 SRR174… b_cell  7 d   TRUE    1    
##  5   0.189 13.0    1.66 -0.0269  4.64  -1.35 SRR174… dendri… 0 d   FALSE   0    
##  6  -0.293 12.9    1.76 -0.0727  4.21  -1.28 SRR174… dendri… 1 d   FALSE   0    
##  7   0.407 13.0    1.42 -0.0529  5.37  -1.01 SRR174… dendri… 3 d   FALSE   1    
##  8  -0.620 13.0    1.73 -0.201   4.17  -1.07 SRR174… dendri… 7 d   FALSE   0    
##  9   2.56  13.5    2.32  2.03   -4.32  -1.22 SRR174… monocy… 0 d   FALSE   1    
## 10   2.65  13.1    2.21  1.80   -4.29  -1.30 SRR174… monocy… 1 d   FALSE   1    
## # … with 38 more rows, 3 more variables: factor_of_interest <lgl>, TMM <dbl>,
## #   multiplier <dbl>, and abbreviated variable names ¹​Cell.type, ²​condition
## # ℹ Use `print(n = ...)` to see more rows, and `colnames()` to see all variable names
…
                     Plot

counts_SE.norm.tSNE %>%
    pivot_sample() %>%
    select(contains("tSNE"), everything()) 

## # A tibble: 251 × 4
##     tSNE1  tSNE2 .sample                      Call 
##     <dbl>  <dbl> <chr>                        <fct>
##  1  -5.25  10.2  TCGA-A1-A0SD-01A-11R-A115-07 LumA 
##  2   6.41   2.79 TCGA-A1-A0SF-01A-11R-A144-07 LumA 
##  3  -9.28   6.63 TCGA-A1-A0SG-01A-11R-A144-07 LumA 
##  4  -1.76   4.82 TCGA-A1-A0SH-01A-11R-A084-07 LumA 
##  5  -1.41  12.2  TCGA-A1-A0SI-01A-11R-A144-07 LumB 
##  6  -1.89  -3.60 TCGA-A1-A0SJ-01A-11R-A084-07 LumA 
##  7  18.5  -13.4  TCGA-A1-A0SK-01A-12R-A084-07 Basal
##  8  -4.03 -10.4  TCGA-A1-A0SM-01A-11R-A084-07 LumA 
##  9  -2.84 -10.8  TCGA-A1-A0SN-01A-11R-A144-07 LumB 
## 10 -19.3    5.03 TCGA-A1-A0SQ-01A-21R-A144-07 LumA 
## # … with 241 more rows
## # ℹ Use `print(n = ...)` to see more rows
…
                      Test differential cell-type abundance

                     We can also perform a statistical test on the differential cell-type
abundance across conditions

    counts_SE %>%
    test_differential_cellularity(. ~ condition )

## 
## The downloaded binary packages are in
##  /var/folders/zn/m_qvr9zd7tq0wdtsbq255f8xypj_zg/T//RtmpIi5KN6/downloaded_packages

## # A tibble: 22 × 7
##    .cell_type                  cell_t…¹ estim…² estim…³ std.e…⁴ stati…⁵ p.valu…⁶
##    <chr>                       <list>     <dbl>   <dbl>   <dbl>   <dbl>    <dbl>
##  1 cibersort.B.cells.naive     <tibble>   -2.94   2.25    0.367   6.13  8.77e-10
##  2 cibersort.B.cells.memory    <tibble>   -4.86   1.48    0.436   3.40  6.77e- 4
##  3 cibersort.Plasma.cells      <tibble>   -5.33  -0.487   0.507  -0.960 3.37e- 1
##  4 cibersort.T.cells.CD8       <tibble>   -2.33   0.924   0.475   1.94  5.18e- 2
##  5 cibersort.T.cells.CD4.naive <tibble>   -2.83  -0.620   0.531  -1.17  2.43e- 1
##  6 cibersort.T.cells.CD4.memo… <tibble>   -2.46   0.190   0.500   0.380 7.04e- 1
##  7 cibersort.T.cells.CD4.memo… <tibble>   -3.67   2.23    0.427   5.22  1.80e- 7
##  8 cibersort.T.cells.follicul… <tibble>   -5.68  -0.217   0.507  -0.427 6.69e- 1
##  9 cibersort.T.cells.regulato… <tibble>   -5.04   1.94    0.360   5.39  6.86e- 8
## 10 cibersort.T.cells.gamma.de… <tibble>   -4.78  -0.250   0.514  -0.486 6.27e- 1
## # … with 12 more rows, and abbreviated variable names ¹​cell_type_proportions,
## #   ²​`estimate_(Intercept)`, ³​estimate_conditionTRUE, ⁴​std.error_conditionTRUE,
## #   ⁵​statistic_conditionTRUE, ⁶​p.value_conditionTRUE
## # ℹ Use `print(n = ...)` to see more rows
…
counts_SE_survival = 
    counts_SE %>%
    nest(data = -sample) %>%
        mutate(
            days = sample(1:1000, size = n()),
            dead = sample(c(0,1), size = n(), replace = TRUE)
        ) %>%
    unnest(data) 

# Test
counts_SE_survival %>%
    test_differential_cellularity(survival::Surv(days, dead) ~ .)

## # A tibble: 22 × 6
##    .cell_type                           cell_t…¹ estim…² std.e…³ stati…⁴ p.value
##    <chr>                                <list>     <dbl>   <dbl>   <dbl>   <dbl>
##  1 cibersort.B.cells.naive              <tibble>  -0.224   0.415  -0.540  0.589 
##  2 cibersort.B.cells.memory             <tibble>   0.510   0.346   1.48   0.140 
##  3 cibersort.Plasma.cells               <tibble>   0.892   0.449   1.99   0.0467
##  4 cibersort.T.cells.CD8                <tibble>   0.531   0.639   0.831  0.406 
##  5 cibersort.T.cells.CD4.naive          <tibble>   0.112   0.386   0.290  0.772 
##  6 cibersort.T.cells.CD4.memory.resting <tibble>   0.498   0.540   0.921  0.357 
##  7 cibersort.T.cells.CD4.memory.activa… <tibble>   2.37    0.939   2.52   0.0117
##  8 cibersort.T.cells.follicular.helper  <tibble>  -0.544   0.421  -1.29   0.197 
##  9 cibersort.T.cells.regulatory..Tregs. <tibble>   1.59    0.656   2.42   0.0157
## 10 cibersort.T.cells.gamma.delta        <tibble>   0.510   0.688   0.741  0.459 
## # … with 12 more rows, and abbreviated variable names ¹​cell_type_proportions,
## #   ²​estimate, ³​std.error, ⁴​statistic
## # ℹ Use `print(n = ...)` to see more rows

                     We can also perform test of Kaplan-Meier curves.

counts_stratified = 
    counts_SE_survival %>%

    # Test
    test_stratification_cellularity(
        survival::Surv(days, dead) ~ .,
        sample, transcript, count
    )

counts_stratified

## # A tibble: 22 × 6
##    .cell_type                         cell_t…¹ .low_…² .high…³ pvalue plot      
##    <chr>                              <list>     <dbl>   <dbl>  <dbl> <list>    
##  1 cibersort.B.cells.naive            <tibble>   14.4     7.56  0.506 <ggsrvplt>
##  2 cibersort.B.cells.memory           <tibble>   17.2     4.77  0.500 <ggsrvplt>
##  3 cibersort.Plasma.cells             <tibble>   13.3     8.73  0.903 <ggsrvplt>
##  4 cibersort.T.cells.CD8              <tibble>   13.9     8.06  0.369 <ggsrvplt>
##  5 cibersort.T.cells.CD4.naive        <tibble>   12.8     9.15  0.407 <ggsrvplt>
##  6 cibersort.T.cells.CD4.memory.rest… <tibble>    7.65   14.4   0.105 <ggsrvplt>
##  7 cibersort.T.cells.CD4.memory.acti… <tibble>   15.7     6.26  0.392 <ggsrvplt>
##  8 cibersort.T.cells.follicular.help… <tibble>   17.1     4.88  0.949 <ggsrvplt>
##  9 cibersort.T.cells.regulatory..Tre… <tibble>   13.7     8.35  0.771 <ggsrvplt>
## 10 cibersort.T.cells.gamma.delta      <tibble>   16.2     5.76  0.379 <ggsrvplt>
## # … with 12 more rows, and abbreviated variable names ¹​cell_type_proportions,
## #   ²​.low_cellularity_expected, ³​.high_cellularity_expected
## # ℹ Use `print(n = ...)` to see more rows
…
                      From ensembl IDs to gene symbol IDs

                     We can add gene symbols from ensembl identifiers. This is useful since
different resources use ensembl IDs while others use gene symbol IDs.
This currently works for human and mouse.

counts_ensembl %>% ensembl_to_symbol(ens)

## # A tibble: 119 × 8
##    ens             iso   `read count` sample     cases…¹ cases…² trans…³ ref_g…⁴
##    <chr>           <chr>        <dbl> <chr>      <chr>   <chr>   <chr>   <chr>  
##  1 ENSG00000000003 13             144 TARGET-20… Acute … Primar… TSPAN6  hg38   
##  2 ENSG00000000003 13              72 TARGET-20… Acute … Primar… TSPAN6  hg38   
##  3 ENSG00000000003 13               0 TARGET-20… Acute … Primar… TSPAN6  hg38   
##  4 ENSG00000000003 13            1099 TARGET-20… Acute … Primar… TSPAN6  hg38   
##  5 ENSG00000000003 13              11 TARGET-20… Acute … Primar… TSPAN6  hg38   
##  6 ENSG00000000003 13               2 TARGET-20… Acute … Primar… TSPAN6  hg38   
##  7 ENSG00000000003 13               3 TARGET-20… Acute … Primar… TSPAN6  hg38   
##  8 ENSG00000000003 13            2678 TARGET-20… Acute … Primar… TSPAN6  hg38   
##  9 ENSG00000000003 13             751 TARGET-20… Acute … Primar… TSPAN6  hg38   
## 10 ENSG00000000003 13               1 TARGET-20… Acute … Primar… TSPAN6  hg38   
## # … with 109 more rows, and abbreviated variable names
## #   ¹​cases_0_project_disease_type, ²​cases_0_samples_0_sample_type, ³​transcript,
## #   ⁴​ref_genome
## # ℹ Use `print(n = ...)` to see more rows
…
